{
    "prepare_queue": {
        "installed": [],
        "uninstalled": []
    },
    "config_munge": {
        "files": {
            "res/xml/config.xml": {
                "parents": {
                    "/*": [
                        {
                            "xml": "<feature name=\"StreamingMedia\"><param name=\"android-package\" value=\"com.hutchind.cordova.plugins.streamingmedia.StreamingMedia\" /></feature>",
                            "count": 1
                        },
                        {
                            "xml": "<feature name=\"BraintreePlugin\"><param name=\"android-package\" value=\"net.justincredible.BraintreePlugin\" /></feature>",
                            "count": 1
                        },
                        {
                            "xml": "<feature name=\"Device\"><param name=\"android-package\" value=\"org.apache.cordova.device.Device\" /></feature>",
                            "count": 1
                        },
                        {
                            "xml": "<feature name=\"CDVOrientation\"><param name=\"android-package\" value=\"cordova.plugins.screenorientation.CDVOrientation\" /></feature>",
                            "count": 1
                        },
                        {
                            "xml": "<feature name=\"Whitelist\"><param name=\"android-package\" value=\"org.apache.cordova.whitelist.WhitelistPlugin\" /><param name=\"onload\" value=\"true\" /></feature>",
                            "count": 1
                        },
                        {
                            "xml": "<feature name=\"SQLitePlugin\"><param name=\"android-package\" value=\"io.sqlc.SQLitePlugin\" /></feature>",
                            "count": 1
                        },
                        {
                            "xml": "<feature name=\"InAppBrowser\"><param name=\"android-package\" value=\"org.apache.cordova.inappbrowser.InAppBrowser\" /></feature>",
                            "count": 1
                        }
                    ]
                }
            },
            "AndroidManifest.xml": {
                "parents": {
                    "/manifest": [
                        {
                            "xml": "<uses-permission android:name=\"android.permission.INTERNET\" />",
                            "count": 1
                        }
                    ],
                    "/manifest/application": [
                        {
                            "xml": "<activity android:configChanges=\"orientation|screenSize\" android:label=\"Simple Audio Stream\" android:name=\"com.hutchind.cordova.plugins.streamingmedia.SimpleAudioStream\" />",
                            "count": 1
                        },
                        {
                            "xml": "<activity android:configChanges=\"orientation|screenSize\" android:label=\"Simple Video Stream\" android:name=\"com.hutchind.cordova.plugins.streamingmedia.SimpleVideoStream\" />",
                            "count": 1
                        }
                    ],
                    "application": [
                        {
                            "xml": "<activity android:launchMode=\"singleTask\" android:name=\"com.braintreepayments.api.BraintreeBrowserSwitchActivity\"><intent-filter><action android:name=\"android.intent.action.VIEW\" /><category android:name=\"android.intent.category.DEFAULT\" /><category android:name=\"android.intent.category.BROWSABLE\" /><data android:scheme=\"${applicationId}.braintree\" /></intent-filter></activity>",
                            "count": 1
                        }
                    ]
                }
            }
        }
    },
    "installed_plugins": {
        "com.hutchind.cordova.plugins.streamingmedia": {
            "PACKAGE_NAME": "com.Revolt.www"
        },
        "cordova-plugin-braintree": {
            "PACKAGE_NAME": "com.Revolt.www"
        },
        "cordova-plugin-device": {
            "PACKAGE_NAME": "com.Revolt.www"
        },
        "es6-promise-plugin": {
            "PACKAGE_NAME": "com.Revolt.www"
        },
        "cordova-plugin-screen-orientation": {
            "PACKAGE_NAME": "com.Revolt.www"
        },
        "cordova-plugin-whitelist": {
            "PACKAGE_NAME": "com.Revolt.www"
        },
        "cordova-sqlite-storage": {
            "PACKAGE_NAME": "com.Revolt.www"
        },
        "cordova-plugin-inappbrowser": {
            "PACKAGE_NAME": "com.Revolt.www"
        }
    },
    "dependent_plugins": {},
    "modules": [
        {
            "id": "com.hutchind.cordova.plugins.streamingmedia.StreamingMedia",
            "file": "plugins/com.hutchind.cordova.plugins.streamingmedia/www/StreamingMedia.js",
            "pluginId": "com.hutchind.cordova.plugins.streamingmedia",
            "clobbers": [
                "streamingMedia"
            ]
        },
        {
            "id": "cordova-plugin-braintree.BraintreePlugin",
            "file": "plugins/cordova-plugin-braintree/www/braintree-plugin.js",
            "pluginId": "cordova-plugin-braintree",
            "clobbers": [
                "BraintreePlugin"
            ]
        },
        {
            "id": "cordova-plugin-device.device",
            "file": "plugins/cordova-plugin-device/www/device.js",
            "pluginId": "cordova-plugin-device",
            "clobbers": [
                "device"
            ]
        },
        {
            "id": "es6-promise-plugin.Promise",
            "file": "plugins/es6-promise-plugin/www/promise.js",
            "pluginId": "es6-promise-plugin",
            "runs": true
        },
        {
            "id": "cordova-plugin-screen-orientation.screenorientation",
            "file": "plugins/cordova-plugin-screen-orientation/www/screenorientation.js",
            "pluginId": "cordova-plugin-screen-orientation",
            "clobbers": [
                "cordova.plugins.screenorientation"
            ]
        },
        {
            "id": "cordova-sqlite-storage.SQLitePlugin",
            "file": "plugins/cordova-sqlite-storage/www/SQLitePlugin.js",
            "pluginId": "cordova-sqlite-storage",
            "clobbers": [
                "SQLitePlugin"
            ]
        },
        {
            "id": "cordova-plugin-inappbrowser.inappbrowser",
            "file": "plugins/cordova-plugin-inappbrowser/www/inappbrowser.js",
            "pluginId": "cordova-plugin-inappbrowser",
            "clobbers": [
                "cordova.InAppBrowser.open",
                "window.open"
            ]
        }
    ],
    "plugin_metadata": {
        "com.hutchind.cordova.plugins.streamingmedia": "0.1.4",
        "cordova-plugin-braintree": "0.5.2",
        "cordova-plugin-device": "1.1.6",
        "es6-promise-plugin": "4.1.0",
        "cordova-plugin-screen-orientation": "2.0.1",
        "cordova-plugin-whitelist": "1.3.2",
        "cordova-sqlite-storage": "2.0.4",
        "cordova-plugin-inappbrowser": "1.7.1"
    }
}